Chapter 2 Hello bookdown | Statistical Rethinking Workbook
…
The model is severely under estimating the number of second-born boys when the first born child is a girl. Thus, our assumption that births are independent appears to be violated.

2.4 Homework

1. Suppose the globe tossing data (Chapter 2) had turned out to be 4 water and 11 land. Construct the posterior distribution, using grid approximation. Use the same flat prior as in the book.

First, we create our grid and create our prior, which is a constant for all values of the grid.

dist <- tibble(p_grid = seq(from = 0, to = 1, length.out = 1000),
               prior = rep(1, times = 1000))
dist

## # A tibble: 1,000 × 2
##     p_grid prior
##      <dbl> <dbl>
##  1 0           1
##  2 0.00100     1
##  3 0.00200     1
##  4 0.00300     1
##  5 0.00400     1
##  6 0.00501     1
##  7 0.00601     1
##  8 0.00701     1
##  9 0.00801     1
## 10 0.00901     1
## # … with 990 more rows

Next, we calculate the likelihood of 4 water and 11 land for each value of the grid and normalize so that all values sum to 1.

dist <- dist %>% 
  mutate(likelihood = dbinom(4, size = 15, prob = p_grid),
         posterior = likelihood * prior,
         posterior = posterior / sum(posterior))
dist

## # A tibble: 1,000 × 4
##     p_grid prior    likelihood posterior
##      <dbl> <dbl>         <dbl>     <dbl>
##  1 0           1 0              0       
##  2 0.00100     1 0.00000000136  2.17e-11
##  3 0.00200     1 0.0000000214   3.44e-10
##  4 0.00300     1 0.000000107    1.72e- 9
##  5 0.00400     1 0.000000336    5.38e- 9
##  6 0.00501     1 0.000000811    1.30e- 8
##  7 0.00601     1 0.00000166     2.66e- 8
##  8 0.00701     1 0.00000305     4.88e- 8
##  9 0.00801     1 0.00000514     8.23e- 8
## 10 0.00901     1 0.00000814     1.30e- 7
## # … with 990 more rows
…
2. Now suppose the data are 4 water and 2 land. Compute the posterior again, but this time use a prior that is zero below p = 0.5 and a constant above p = 0.5. This corresponds to prior information that a majority of the Earth’s surface is water.

We follow the same process, but now we define a prior that is 0 for the p < .5 and 1 for p ≥ .5.

dist <- tibble(p_grid = seq(from = 0, to = 1, length.out = 1000),
               prior = rep(c(0, 1), each = 500)) %>% 
  mutate(likelihood = dbinom(4, size = 6, prob = p_grid),
         posterior = likelihood * prior,
         posterior = posterior / sum(posterior))
dist

## # A tibble: 1,000 × 4
##     p_grid prior likelihood posterior
##      <dbl> <dbl>      <dbl>     <dbl>
##  1 0           0   0                0
##  2 0.00100     0   1.50e-11         0
##  3 0.00200     0   2.40e-10         0
##  4 0.00300     0   1.21e- 9         0
##  5 0.00400     0   3.82e- 9         0
##  6 0.00501     0   9.32e- 9         0
##  7 0.00601     0   1.93e- 8         0
##  8 0.00701     0   3.57e- 8         0
##  9 0.00801     0   6.07e- 8         0
## 10 0.00901     0   9.70e- 8         0
## # … with 990 more rows
…
